{
	"type": "minecraft:crafting_shaped",
	"pattern": [
		"#",
		"X"
	],
	"key": {
		"#": {
			"item": "spike_trap:gravel_false_floor"
		},
		"X": {
			"tag": "spike_trap:trap_floors"
		}
	},
	"result": {
		"item": "spike_trap:gravel_trap_floor",
		"count": 1
	}
}
