{
	"parent": "spike_trap:recipes/root",
	"criteria": {
		"has_coarse_dirt": {
			"conditions": {
				"items": [
					{
						"items": [
							"minecraft:coarse_dirt"
						]
					}
				]
			},
			"trigger": "minecraft:inventory_changed"
		},
		"has_the_recipe": {
			"conditions": {
				"recipe": "spike_trap:coarse_dirt_false_floor"
			},
			"trigger": "minecraft:recipe_unlocked"
		}
	},
	"requirements": [
		[
			"has_coarse_dirt",
			"has_the_recipe"
		]
	],
	"rewards": {
		"recipes": [
			"spike_trap:coarse_dirt_false_floor"
		]
	}
}