{
	"parent": "spike_trap:recipes/root",
	"criteria": {
		"has_diamond_spike": {
			"conditions": {
				"items": [
					{
						"items": [
							"spike_trap:diamond_spike"
						]
					}
				]
			},
			"trigger": "minecraft:inventory_changed"
		},
		"has_the_recipe": {
			"conditions": {
				"recipe": "spike_trap:diamond_spike_trap"
			},
			"trigger": "minecraft:recipe_unlocked"
		}
	},
	"requirements": [
		[
			"has_diamond_spike",
			"has_the_recipe"
		]
	],
	"rewards": {
		"recipes": [
			"spike_trap:diamond_spike_trap"
		]
	}
}