{
	"parent": "spike_trap:recipes/root",
	"criteria": {
		"has_soul_soil": {
			"conditions": {
				"items": [
					{
						"items": [
							"minecraft:soul_soil"
						]
					}
				]
			},
			"trigger": "minecraft:inventory_changed"
		},
		"has_the_recipe": {
			"conditions": {
				"recipe": "spike_trap:soul_soil_false_floor"
			},
			"trigger": "minecraft:recipe_unlocked"
		}
	},
	"requirements": [
		[
			"has_soul_soil",
			"has_the_recipe"
		]
	],
	"rewards": {
		"recipes": [
			"spike_trap:soul_soil_false_floor"
		]
	}
}